caseid,title,hallName,hallType,hallX,hallY,cinemaId,expect
addhall_1,全部正确的数据,32号厅,1,10,10,1,success
addhall_2,影厅名称数据重复,32号厅,1,10,10,1,failed
addhall_3,影厅类型数据错误,33号厅,9,10,10,1,failed
addhall_4,座位行数数据为负,34号厅,1,-10,10,1,failed
addhall_5,座位列数数据为负,35号厅,1,10,-10,1,failed
addhall_6,影院ID数据错误,36号厅,1,10,10,33,failed