caseid,casetitle,host,provice,city,brand,hallType,area,page,expect
cinemaquery_1,测试没有搜索条件时第一条的预期,http://192.168.1.49:8080,,,,,,1,万达影城(松江店)
cinemaquery_2,查询杭州市影院第一条,http://192.168.1.49:8080,,杭州市,,,,1,太平洋影城(杭州下沙店)
cinemaquery_3,查询上海市影院第一条,http://192.168.1.49:8080,,上海市,,,,1,万达影城(松江店)
cinemaquery_4,查询和平影城城品牌,http://192.168.1.49:8080,,,和平影城城,,,1,和平影都(来福士广场店)
cinemaquery_5,不输入任何条件包括页码,http://192.168.1.49:8080,,,,,,,万达影城(松江店)